<?xml version="1.0" encoding="UTF-8"?>
<CustomTab xmlns="http://soap.sforce.com/2006/04/metadata">
    <description>Deal Administration Console - Setup and maintain deal guidance rules.</description>
    <label>Deal Setup Console</label>
    <mobileReady>false</mobileReady>
    <motif>Custom5: Leaf</motif>
    <page>DealSetupConsole</page>
</CustomTab>
